Notes
…
hp_words

# A tibble: 1,089,386 × 3
   book               chapter word   
   <fct>                <int> <chr>  
 1 philosophers_stone       1 the    
 2 philosophers_stone       1 boy    
 3 philosophers_stone       1 who    
 4 philosophers_stone       1 lived  
 5 philosophers_stone       1 mr     
 6 philosophers_stone       1 and    
 7 philosophers_stone       1 mrs    
 8 philosophers_stone       1 dursley
 9 philosophers_stone       1 of     
10 philosophers_stone       1 number 
# ℹ 1,089,376 more rows
…
