Creating a Corpus – Text Analysis with R
…
Tokenization: This is the process of splitting the text into individual words or tokens, which is crucial for most text analysis tasks.

Let’s implement these preprocessing steps using dplyr, stringr, and tidytext. This approach allows us to chain multiple operations together:

library(tidytext) # We'll need this for tokenization

beforethelaw_preprocessed <- beforethelaw_tibble %>%
    mutate(text = str_to_lower(text)) %>%        # Convert to lowercase
    mutate(text = str_remove_all(text, "[[:punct:]]")) %>%  # Remove punctuation
    unnest_tokens(word, text)                    # Tokenization into individual words

beforethelaw_preprocessed

# A tibble: 640 × 2
      id word      
   <int> <chr>     
 1     1 before    
 2     1 the       
 3     1 law       
 4     1 sits      
 5     1 a         
 6     1 gatekeeper
 7     1 to        
 8     1 this      
 9     1 gatekeeper
10     1 comes     
# ℹ 630 more rows

We’ve transformed our single-row tibble into a long 640-row tibble, where each row represents a single word from the original text. The unnest_tokens() function from the tidytext package is particularly useful here, as it automatically handles tokenization and creates a new row for each word.

Note that this number of rows matches the word count from the previous episode. However, this alignment won’t always occur. Depending on text complexity, basic word counting and tokenization can produce different results. For example, tokenization might split contractions (“don’t” → “don” + “t”) or treat hyphenated words (“twenty-one”) as separate tokens, while a simple word count would treat them as single units.

Depending on the purposes of your analysis, you may want to perform additional preprocessing steps, such as removing stop words (common words like “the,” “and,” “is” that may not carry significant meaning for analysis). Let’s remove stop words for this example using the tidytext package:

beforethelaw_reduced <- beforethelaw_preprocessed %>%
    anti_join(stop_words, by = "word") # anti_join removes words that match the stop_words list

beforethelaw_reduced

# A tibble: 164 × 2
      id word      
   <int> <chr>     
 1     1 law       
 2     1 sits      
 3     1 gatekeeper
 4     1 gatekeeper
 5     1 country   
 6     1 gain      
 7     1 entry     
 8     1 law       
 9     1 gatekeeper
10     1 grant     
# ℹ 154 more rows
…
corpus

# A tibble: 25 × 5
   author                      title                            year  glID genre
   <chr>                       <chr>                           <dbl> <dbl> <chr>
 1 Jane Austen                 Pride and Prejudice              1813  1342 Soci…
 2 Charles Dickens             A Tale of Two Cities             1859    98 Soci…
 3 F. Scott Fitzgerald         The Great Gatsby                 1925 64317 Soci…
 4 Mary Wollstonecraft Shelley Frankenstein; Or, The Modern P…  1818    84 Goth…
 5 Herman Melville             Moby Dick                        1851  2701 Adve…
 6 Louisa May Alcott           Little Women                     1868 37106 Dome…
 7 Mark Twain                  Tom Sawyer                       1876    74 Adve…
 8 Jonathan Swift              Gulliver's Travels               1726 17157 Sati…
 9 E. M. Forster               A Room with a View               1908  2641 Soci…
10 Elizabeth Von Arnim         The Enchanted April              1922 16389 Soci…
# ℹ 15 more rows
…
Step by step, what we are going to do is install and load the gutenbergr package, which handles the downloading and cleaning automatically (removing Project Gutenberg headers, footers, and formatting markers).

install.packages("gutenbergr") # Install if needed (run once)
library(gutenbergr)

After that, we need to iterate over the glIDs in our corpus for the package to know what book to download. The function gutenberg_download() will take the glID as an argument and return the full text of the book as a tibble with two columns, like this one:

gutenberg_download(1342) # 1342 is the ID for "Pride and Prejudice"

Determining mirror for Project Gutenberg from
https://www.gutenberg.org/robot/harvest.
Using mirror http://aleph.gutenberg.org.

# A tibble: 14,527 × 2
   gutenberg_id text                                            
          <int> <chr>                                           
 1         1342 "                             GEORGE ALLEN"     
 2         1342 "                               PUBLISHER"      
 3         1342 ""                                              
 4         1342 "                        156 CHARING CROSS ROAD"
 5         1342 "                                LONDON"        
 6         1342 ""                                              
 7         1342 "                             RUSKIN HOUSE"     
 8         1342 "                                   ]"          
 9         1342 ""                                              
10         1342 "                            [Illustration:"    
# ℹ 14,517 more rows

This tibble needs to be transformed into a single text string that fits in a column of our corpus tibble. We can use the pull() function to extract the text column and then use paste(collapse = " ") to concatenate all the lines into a single string.

# Download all books at once
corpus_texts <- corpus %>%
   mutate(text = map(glID, ~gutenberg_download(.x) %>%
   pull(text) %>%
   paste(collapse = " ")))

corpus_texts

# A tibble: 25 × 6
   author                      title                      year  glID genre text 
   <chr>                       <chr>                     <dbl> <dbl> <chr> <lis>
 1 Jane Austen                 Pride and Prejudice        1813  1342 Soci… <chr>
 2 Charles Dickens             A Tale of Two Cities       1859    98 Soci… <chr>
 3 F. Scott Fitzgerald         The Great Gatsby           1925 64317 Soci… <chr>
 4 Mary Wollstonecraft Shelley Frankenstein; Or, The Mo…  1818    84 Goth… <chr>
 5 Herman Melville             Moby Dick                  1851  2701 Adve… <chr>
 6 Louisa May Alcott           Little Women               1868 37106 Dome… <chr>
 7 Mark Twain                  Tom Sawyer                 1876    74 Adve… <chr>
 8 Jonathan Swift              Gulliver's Travels         1726 17157 Sati… <chr>
 9 E. M. Forster               A Room with a View         1908  2641 Soci… <chr>
10 Elizabeth Von Arnim         The Enchanted April        1922 16389 Soci… <chr>
# ℹ 15 more rows
…
Let’s apply a straightforward approach: remove punctuation normally, then handle possessives during tokenization:

# Cleaning the texts - simple approach
corpus_texts <- corpus_texts %>%
   mutate(
    text_clean = str_to_lower(text) %>%               # Convert to lowercase
       str_remove_all("'s\\b") %>%                    # Remove possessive 's from full text
       str_remove_all("[[:punct:]]") %>%              # Remove remaining punctuation
       str_squish()                                    # Remove extra whitespace
   )

corpus_texts

# A tibble: 25 × 7
   author                      title           year  glID genre text  text_clean
   <chr>                       <chr>          <dbl> <dbl> <chr> <lis> <chr>     
 1 Jane Austen                 Pride and Pre…  1813  1342 Soci… <chr> george al…
 2 Charles Dickens             A Tale of Two…  1859    98 Soci… <chr> a tale of…
 3 F. Scott Fitzgerald         The Great Gat…  1925 64317 Soci… <chr> the great…
 4 Mary Wollstonecraft Shelley Frankenstein;…  1818    84 Goth… <chr> frankenst…
 5 Herman Melville             Moby Dick       1851  2701 Adve… <chr> mobydick …
 6 Louisa May Alcott           Little Women    1868 37106 Dome… <chr> illustrat…
 7 Mark Twain                  Tom Sawyer      1876    74 Adve… <chr> the adven…
 8 Jonathan Swift              Gulliver's Tr…  1726 17157 Sati… <chr> gulliver …
 9 E. M. Forster               A Room with a…  1908  2641 Soci… <chr> illustrat…
10 Elizabeth Von Arnim         The Enchanted…  1922 16389 Soci… <chr> illustrat…
# ℹ 15 more rows
…
