Basic Text Analysis – Text Analysis with R
…
lexical_stats

# A tibble: 25 × 7
   author             title  year genre total_words unique_words lexical_density
   <chr>              <chr> <dbl> <chr>       <int>        <int>           <dbl>
 1 H. G. Wells        The …  1895 Scie…       11162         4347            38.9
 2 F. Scott Fitzgera… The …  1925 Soci…       17432         5775            33.1
 3 Kenneth Grahame    The …  1908 Fant…       20786         6618            31.8
 4 Jonathan Swift     Gull…  1726 Sati…       18142         5529            30.5
 5 E. M. Forster      A Ro…  1908 Soci…       22844         6909            30.2
 6 Mark Twain         Tom …  1876 Adve…       25728         7772            30.2
 7 J. M. Barrie       Pete…  1911 Fant…       15199         4465            29.4
 8 Elizabeth Gaskell  Cran…  1853 Dome…       23296         6680            28.7
 9 Robert Louis Stev… Trea…  1883 Adve…       22647         6068            26.8
10 Jules Verne        Arou…  1873 Adve…       24914         6631            26.6
# ℹ 15 more rows
…
word_length_stats

# A tibble: 25 × 4
   author                      title          avg_word_length median_word_length
   <chr>                       <chr>                    <dbl>              <dbl>
 1 Jules Verne                 Twenty Thousa…            4.63                  4
 2 Jules Verne                 Around the Wo…            4.57                  4
 3 Herman Melville             Moby Dick                 4.49                  4
 4 Charles Dickens             The Pickwick …            4.47                  4
 5 Jules Verne                 A Journey to …            4.44                  4
 6 Jane Austen                 Pride and Pre…            4.43                  4
 7 Mary Wollstonecraft Shelley Frankenstein;…            4.43                  4
 8 Jane Austen                 Northanger Ab…            4.41                  4
 9 Elizabeth Von Arnim         The Enchanted…            4.38                  4
10 H. G. Wells                 The Time Mach…            4.36                  4
# ℹ 15 more rows
…
sentence_stats

# A tibble: 25 × 5
   author       title avg_sentence_length median_sentence_length total_sentences
   <chr>        <chr>               <dbl>                  <dbl>           <int>
 1 Jonathan Sw… Gull…                28.2                     23            1851
 2 Elizabeth G… Cran…                25.5                     20            2806
 3 Mary Wollst… Fran…                22.3                     20            3378
 4 Herman Melv… Moby…                20.0                     14           10717
 5 Jane Austen  Nort…                19.8                     14            3952
 6 Louisa May … Litt…                19.6                     17            9943
 7 Kenneth Gra… The …                18.2                     13            3269
 8 Jane Austen  Prid…                17.5                     13            7356
 9 Robert Loui… Trea…                17.5                     13            3950
10 Bram Stoker  Drac…                17.4                     15            9331
# ℹ 15 more rows
…
