TF-IDF: Finding Distinctive Words – Text Analysis with R
…
Determining mirror for Project Gutenberg from
https://www.gutenberg.org/robot/harvest.
Using mirror http://aleph.gutenberg.org.

corpus_texts

# A tibble: 25 × 5
   author                      title                       year genre text_clean
   <chr>                       <chr>                      <dbl> <chr> <chr>     
 1 Jane Austen                 Pride and Prejudice         1813 Soci… george al…
 2 Charles Dickens             A Tale of Two Cities        1859 Soci… a tale of…
 3 F. Scott Fitzgerald         The Great Gatsby            1925 Soci… the great…
 4 Mary Wollstonecraft Shelley Frankenstein; Or, The Mod…  1818 Goth… frankenst…
 5 Herman Melville             Moby Dick                   1851 Adve… mobydick …
 6 Louisa May Alcott           Little Women                1868 Dome… illustrat…
 7 Mark Twain                  Tom Sawyer                  1876 Adve… the adven…
 8 Jonathan Swift              Gulliver's Travels          1726 Sati… gulliver …
 9 E. M. Forster               A Room with a View          1908 Soci… illustrat…
10 Elizabeth Von Arnim         The Enchanted April         1922 Soci… illustrat…
# ℹ 15 more rows
…
Let’s examine what these high TF-IDF words tell us about each book:

# Top TF-IDF words for each book
top_tfidf <- corpus_tfidf %>%
  group_by(title) %>%
  slice_max(tf_idf, n = 10) %>%
  ungroup()

top_tfidf

# A tibble: 251 × 6
   title                                word           n      tf   idf  tf_idf
   <chr>                                <chr>      <int>   <dbl> <dbl>   <dbl>
 1 A Journey to the Centre of the Earth hans         168 0.00545 2.53  0.0138 
 2 A Journey to the Centre of the Earth uncle        502 0.0163  0.446 0.00727
 3 A Journey to the Centre of the Earth sneffels      49 0.00159 3.22  0.00512
 4 A Journey to the Centre of the Earth professor    184 0.00597 0.734 0.00438
 5 A Journey to the Centre of the Earth hardwigg      41 0.00133 3.22  0.00428
 6 A Journey to the Centre of the Earth saknussemm    41 0.00133 3.22  0.00428
 7 A Journey to the Centre of the Earth iceland       48 0.00156 2.53  0.00393
 8 A Journey to the Centre of the Earth lava          49 0.00159 2.12  0.00337
 9 A Journey to the Centre of the Earth granite       53 0.00172 1.83  0.00315
10 A Journey to the Centre of the Earth raft          88 0.00285 1.02  0.00292
# ℹ 241 more rows
Understanding the Results

Let’s examine what these distinctive words reveal:

# Display top words by book in a more readable format
top_tfidf %>%
  select(title, word, tf_idf) %>%
  mutate(tf_idf = round(tf_idf, 4)) %>%
  group_by(title) %>%
  summarise(
    top_words = paste(word, collapse = ", "),
    .groups = "drop"
  )

# A tibble: 25 × 2
   title                                   top_words                            
   <chr>                                   <chr>                                
 1 A Journey to the Centre of the Earth    hans, uncle, sneffels, professor, ha…
 2 A Room with a View                      lucy, bartlett, cecil, honeychurch, …
 3 A Tale of Two Cities                    lorry, defarge, carton, manette, pro…
 4 Alice's Adventures in Wonderland        alice, gryphon, hatter, dormouse, du…
 5 Around the World in Eighty Days         fogg, passepartout, phileas, aouda, …
 6 Cranford                                matty, cranford, jenkyns, jamieson, …
 7 Dracula                                 xury, friday, canoe, brazils, island…
 8 Frankenstein; Or, The Modern Prometheus clerval, justine, felix, frankenstei…
 9 Great Expectations                      joe, wemmick, havisham, estella, her…
10 Gulliver's Travels                      glumdalclitch, blefuscu, majesty, em…
# ℹ 15 more rows
…
